[
  {
    "id": 0,
    "surName": "Александров",
    "firstName": "Игнат",
    "secondName": "Анатолиевич",
    "age": 24,
    "gender": false,
    "statusActive": false,
    "statusGame": true,
    "created_at": "2021-10-12 00:00:00.000000",
    "updated_at": "2021-10-12 00:00:00.000000"
  },
  {
    "id": 1,
    "surName": "Мартынов",
    "firstName": "Остап",
    "secondName": "Фёдорович",
    "age": 12,
    "gender": false,
    "statusActive": true,
    "statusGame": false,
    "created_at": "2021-10-12 00:00:00.000000",
    "updated_at": "2021-10-12 00:00:00.000000"
  },
  {
    "id": 4,
    "surName": "Борисов",
    "firstName": "Йошка",
    "secondName": "Васильевич",
    "age": 32,
    "gender": false,
    "statusActive": true,
    "statusGame": false,
    "created_at": "2021-10-12 00:00:00.000000",
    "updated_at": "2021-10-12 00:00:00.000000"
  },
  {
    "id": 2,
    "surName": "Комаров",
    "firstName": "Цефас",
    "secondName": "Александрович",
    "age": 83,
    "gender": true,
    "statusActive": true,
    "statusGame": true,
    "created_at": "2021-10-12 00:00:00.000000",
    "updated_at": "2021-10-12 00:00:00.000000"
  },
  {
    "id": 3,
    "surName": "Кулаков",
    "firstName": "Станислав",
    "secondName": "Петрович",
    "age": 43,
    "gender": true,
    "statusActive": false,
    "statusGame": false,
    "created_at": "2021-10-12 00:00:00.000000",
    "updated_at": "2021-10-12 00:00:00.000000"
  },
  {
    "id": 5,
    "surName": "Негода",
    "firstName": "Михаил",
    "secondName": "Эдуардович",
    "age": 33,
    "gender": true,
    "statusActive": true,
    "statusGame": false,
    "created_at": "2021-10-12 00:00:00.000000",
    "updated_at": "2021-10-12 00:00:00.000000"
  },
  {
    "id": 6,
    "surName": "Жданов",
    "firstName": "Зураб",
    "secondName": "Алексеевич",
    "age": 24,
    "gender": true,
    "statusActive": true,
    "statusGame": true,
    "created_at": "2021-10-12 00:00:00.000000",
    "updated_at": "2021-10-12 00:00:00.000000"
  },
  {
    "id": 7,
    "surName": "Бобров",
    "firstName": "Фёдор",
    "secondName": "Викторович",
    "age": 19,
    "gender": true,
    "statusActive": false,
    "statusGame": false,
    "created_at": "2021-10-12 00:00:00.000000",
    "updated_at": "2021-10-12 00:00:00.000000"
  },
  {
    "id": 8,
    "surName": "Александров",
    "firstName": "Игнат",
    "secondName": "Анатолиевич",
    "age": 21,
    "gender": false,
    "statusActive": true,
    "statusGame": false,
    "created_at": "2021-10-12 00:00:00.000000",
    "updated_at": "2021-10-12 00:00:00.000000"
  },
  {
    "id": 9,
    "surName": "Многогрешный",
    "firstName": "Павел",
    "secondName": "Виталиевич",
    "age": 24,
    "gender": true,
    "statusActive": false,
    "statusGame": true,
    "created_at": "2021-10-12 00:00:00.000000",
    "updated_at": "2021-10-12 00:00:00.000000"
  }
]